module gitlab.com/trhhosting/caddy

go 1.15

require (
	github.com/dustin/go-humanize v1.0.0
	github.com/flynn/go-shlex v0.0.0-20150515145356-3f9db97f8568
	github.com/go-acme/lego/v3 v3.3.0
	github.com/google/uuid v1.1.1
	github.com/gorilla/websocket v1.4.0
	github.com/hashicorp/go-syslog v1.0.0
	github.com/jimstudt/http-authentication v0.0.0-20140401203705-3eca13d6893a
	github.com/klauspost/cpuid v1.2.0
	github.com/kylelemons/godebug v0.0.0-20170820004349-d65d576e9348 // indirect
	github.com/lucas-clemente/quic-go v0.13.1
	github.com/mholt/certmagic v0.8.3
	github.com/naoina/go-stringutil v0.1.0 // indirect
	github.com/naoina/toml v0.1.1
	github.com/russross/blackfriday v0.0.0-20170610170232-067529f716f4
	golang.org/x/net v0.0.0-20191027093000-83d349e8ac1a
	golang.org/x/sys v0.0.0-20191026070338-33540a1f6037 // indirect
	gopkg.in/mcuadros/go-syslog.v2 v2.2.1
	gopkg.in/natefinch/lumberjack.v2 v2.0.0
	gopkg.in/yaml.v2 v2.2.2
)
